Supplier 
---------------------
1. Init Due not complete
2. Current Due
3. Supplier payment
5. Supplier ledger


customer
==================
1. customer crud
2. customer payment
3. customer ledger


purchase
====================
4. purchase reports
5. purchase return
6. purchase ledger
7. need to implement TAX 
8. need to add supplier transaction 


sales 
===================
2. sales report
3. sale return
4. sale ledger
5. need to add customer transaction 


ledger
================
1. stock
2. daily transaction report
3. 

